…
``` r
# get the results for 1-5 scale rating test (version 3)
mean.rate.v4 <- mutate(rate.data.v4, iscorrect = ifelse(rating == whichCorrect, 1, 0)) %>%
  group_by(age.group, condition.y, language, subject, corr.det.cat,noun.rank) %>%
  summarise(count = n(), n.corr = sum(iscorrect), pcntcorr = n.corr/count*100) %>% print
```

    ## Source: local data frame [162 x 9]
    ## Groups: age.group, condition.y, language, subject, corr.det.cat [?]
    ## 
    ##    age.group condition.y language subject corr.det.cat noun.rank count
    ##        <chr>       <chr>    <chr>   <chr>        <chr>     <chr> <int>
    ## 1      adult        3R6E        A     S12            e        N2     3
    ## 2      adult        3R6E        A     S12            e        N4     3
    ## 3      adult        3R6E        A     S12            e        N6     3
    ## 4      adult        3R6E        A     S12            e        N7     3
    ## 5      adult        3R6E        A     S12            e        N8     3
    ## 6      adult        3R6E        A     S12            e        N9     3
    ## 7      adult        3R6E        A     S12            R        N1     3
    ## 8      adult        3R6E        A     S12            R        N3     3
    ## 9      adult        3R6E        A     S12            R        N5     3
    ## 10     adult        3R6E        B     S13            e        N1     3
    ## # ... with 152 more rows, and 2 more variables: n.corr <dbl>,
    ## #   pcntcorr <dbl>
…
